<?xml version="1.0" encoding="utf-8"?>
<!-- Generated by IcoMoon.io -->
<!DOCTYPE svg PUBLIC "-//W3C//DTD SVG 1.1//EN" "http://www.w3.org/Graphics/SVG/1.1/DTD/svg11.dtd">
<svg version="1.1" xmlns="http://www.w3.org/2000/svg" xmlns:xlink="http://www.w3.org/1999/xlink" width="32" height="32" viewBox="0 0 32 32">
<g id="icomoon-ignore">
</g>
<path d="M8 15.016h4v0.984h-4v-0.984z" fill="#000000"></path>
<path d="M20 8.016v1.984h-8v-1.984l8 0z" fill="#000000"></path>
<path d="M12 18.004l8-0.004v6h-8v-5.996z" fill="#000000"></path>
<path d="M0 32h32v-32h-32v32zM26 18h-4v8l-12 0.016v-7.979l-4.021-0.016v-8.042h4.020l0.001-3.979 12.001-0.001-0.032 4 4 0.001 0.031 7.999z" fill="#000000"></path>
</svg>
